{
  "employee": [
    {
      "name": "John Doe",
      "email": "john@yahoo.com",
      "id": "1"
    },
    {
      "id": "2",
      "name": "Jane Doe",
      "email": "jane@gmail.com"
    },
    {
      "id": "6fe8",
      "name": "Azman bin Zakaria",
      "email": "azman1204@yahoo.com"
    },
    {
      "id": "47ec",
      "name": "Ali bin Abi",
      "email": "ali@yahoo.com"
    },
    {
      "id": "f3fa",
      "name": "Jamilah",
      "email": "jamilah@gmail.com"
    }
  ]
}